<?xml version="1.0" encoding="UTF-8"?>
<svg width="48px" height="48px" viewBox="0 0 48 48" version="1.1" xmlns="http://www.w3.org/2000/svg" xmlns:xlink="http://www.w3.org/1999/xlink">
    <!-- Generator: Sketch 48.1 (47250) - http://www.bohemiancoding.com/sketch -->
    <title>Group 181</title>
    <desc>Created with Sketch.</desc>
    <defs>
        <linearGradient x1="29.2962576%" y1="18.8595221%" x2="67.7245979%" y2="111.237108%" id="linearGradient-1">
            <stop stop-color="#20C1DC" offset="0%"></stop>
            <stop stop-color="#1CCCA5" offset="100%"></stop>
        </linearGradient>
    </defs>
    <g id="Page-1" stroke="none" stroke-width="1" fill="none" fill-rule="evenodd">
        <g id="Group-181">
            <rect id="Rectangle-61-Copy-3" fill="url(#linearGradient-1)" x="0" y="0" width="48" height="48" rx="1.77777778"></rect>
            <g id="Group-153" transform="translate(8.000000, 8.000000)" fill="#FFFFFF" opacity="0.846723414">
                <path d="M28,1 C27.52,0.395555556 27.8355556,-5.68434189e-14 27,-5.68434189e-14 L5,-5.68434189e-14 C4.16444444,-5.68434189e-14 4.49777778,0.395555556 4,1 L1,4 C0.484444444,4.60444444 0,5.14666667 0,6 L0,28 C0,29.9555556 2.04444444,32 4,32 L28,32 C29.9555556,32 32,29.9555556 32,28 L32,6 C32,5.14666667 31.5155556,4.60444444 31,4 L28,1 Z M6,2 L26,2 L28,5 L4,5 L6,2 Z M11,11 C15.9622377,10.9370657 18.6289044,10.9370657 19,11 C19.5566434,11.0944015 19.776365,11.116535 20.2158203,11.4160156 C20.6552756,11.7154963 21.0214829,12.1142553 21.3144531,12.6123047 C21.6074233,13.1103541 21.7539062,13.6686167 21.7539062,14.2871094 C21.7539062,14.9576856 21.573244,15.5729139 21.2119141,16.1328125 C20.8505841,16.6927111 20.3606802,17.1126288 19.7421875,17.3925781 C20.6145877,17.6464856 21.2851539,18.079424 21.7539062,18.6914063 C22.2226586,19.3033885 22.4570312,20.0227823 22.4570312,20.8496094 C22.4570312,21.5006543 22.3056656,22.133786 22.0029297,22.7490234 C21.7001938,23.3642609 21.2867865,23.8557924 20.7626953,24.2236328 C20.2386042,24.5914732 19.768233,24.9153642 19,25 C18.6788178,25.0347224 16.0121512,25.0347224 11,25 L11,11 Z M13.3554688,13.0664063 L13.3554688,16.3769531 L15.25,16.3769531 C16.3763077,16.3769531 17.0761705,16.3606772 17.3496094,16.328125 C17.8444035,16.269531 18.233397,16.0986342 18.5166016,15.8154297 C18.7998061,15.5322251 18.9414062,15.1595075 18.9414062,14.6972656 C18.9414062,14.2545551 18.8193372,13.8948582 18.5751953,13.6181641 C18.3310535,13.34147 17.9681014,13.1738284 17.4863281,13.1152344 C17.1998684,13.0826821 16.3763089,13.0664063 15.015625,13.0664063 L13.3554688,13.0664063 Z M13,18.7597656 L13,22.5878906 L16.03125,22.5878906 C17.0729219,22.5878906 17.7337226,22.558594 18.0136719,22.5 C18.4433615,22.4218746 18.7932929,22.2314468 19.0634766,21.9287109 C19.3336602,21.625975 19.46875,21.2207057 19.46875,20.7128906 C19.46875,20.283201 19.3645844,19.9186213 19.15625,19.6191406 C18.9479156,19.31966 18.6468119,19.1015632 18.2529297,18.9648438 C17.8590475,18.8281243 17.0045639,18.7597656 15.6894531,18.7597656 L13,18.7597656 Z" id="Combined-Shape"></path>
            </g>
        </g>
    </g>
</svg>