<?xml version="1.0" encoding="UTF-8"?>
<svg width="24px" height="24px" viewBox="0 0 24 24" version="1.1" xmlns="http://www.w3.org/2000/svg" xmlns:xlink="http://www.w3.org/1999/xlink">
    <!-- Generator: Sketch 48.1 (47250) - http://www.bohemiancoding.com/sketch -->
    <title>Artboard 3 Copy 6</title>
    <desc>Created with Sketch.</desc>
    <defs></defs>
    <g id="jenkins" stroke="none" stroke-width="1" fill="none" fill-rule="evenodd">
        <g id="Artboard-3-Copy-6" fill="#FFFFFF">
            <path d="M13.5669019,15.7991356 L13.5669019,18.3909281 C13.5669019,18.5061195 13.5237057,18.6069103 13.4373133,18.6933038 C13.3509185,18.7796973 13.2501282,18.8228934 13.1349376,18.8228934 L10.5431441,18.8228934 C10.4279535,18.8228934 10.3271632,18.7796973 10.2407684,18.6933038 C10.154376,18.6069103 10.1111798,18.5061195 10.1111798,18.3909281 L10.1111798,15.7991356 C10.1111798,15.683945 10.154376,15.5831523 10.2407684,15.4967599 C10.3271632,15.4103675 10.4279535,15.3671713 10.5431441,15.3671713 L13.1349376,15.3671713 C13.2501282,15.3671713 13.3509185,15.4103675 13.4373133,15.4967599 C13.5237057,15.5831523 13.5669019,15.683945 13.5669019,15.7991356 Z M16.9794303,9.31965571 C16.9794303,9.70842629 16.9236335,10.0719933 16.8120423,10.4103663 C16.7004511,10.7487417 16.574462,11.0241165 16.4340726,11.2365004 C16.2936832,11.4488843 16.095702,11.6630656 15.8401195,11.879049 C15.5845394,12.0950324 15.3775595,12.2516195 15.2191703,12.3488127 C15.060781,12.4460035 14.841203,12.5737924 14.5604241,12.7321817 C14.2652448,12.8977699 14.0186683,13.1317483 13.8206823,13.4341241 C13.6226963,13.7365022 13.5237057,13.9776796 13.5237057,14.1576682 C13.5237057,14.2800578 13.4805095,14.3970482 13.3941172,14.5086394 C13.3077223,14.6202305 13.206932,14.6760249 13.0917414,14.6760249 L10.4999479,14.6760249 C10.3919563,14.6760249 10.3001646,14.6094321 10.2245707,14.4762416 C10.1489768,14.3430511 10.1111798,14.2080633 10.1111798,14.0712734 L10.1111798,13.5853119 C10.1111798,12.9877569 10.3451582,12.4244091 10.8131222,11.895249 C11.2810886,11.366089 11.795841,10.9755235 12.3573988,10.7235429 C12.7821666,10.5291564 13.08454,10.3275758 13.2645261,10.1187913 C13.4445123,9.91000692 13.5345042,9.63643183 13.5345042,9.2980564 C13.5345042,8.9956782 13.367121,8.72930208 13.0323451,8.49892076 C12.6975716,8.26853703 12.3106056,8.15334879 11.8714374,8.15334879 C11.4034734,8.15334879 11.0147076,8.25773858 10.7051329,8.46652301 C10.4531499,8.64650917 10.067986,9.06047129 9.54962442,9.70842387 C9.45603065,9.82361453 9.34444141,9.88120865 9.21485113,9.88120865 C9.12845777,9.88120865 9.0384659,9.8524128 8.94487286,9.79481626 L7.17381472,8.4449237 C7.08022175,8.37292924 7.02442679,8.28293737 7.00642813,8.17494568 C6.98842949,8.06695398 7.0082277,7.96616367 7.06582339,7.8725699 C8.21773676,5.95751524 9.88798533,5 12.0766223,5 C12.652578,5 13.232126,5.11159118 13.8152831,5.33477353 C14.3984377,5.5579583 14.923991,5.85672976 15.3919575,6.23110242 C15.8599215,6.60547508 16.2414858,7.06443313 16.5366651,7.60799109 C16.8318419,8.15155147 16.9794303,8.72210069 16.9794303,9.31965571 Z" id="Page-1"></path>
        </g>
    </g>
</svg>