<?xml version="1.0" encoding="UTF-8"?>
<svg width="32px" height="28px" viewBox="0 0 32 28" version="1.1" xmlns="http://www.w3.org/2000/svg" xmlns:xlink="http://www.w3.org/1999/xlink">
    <!-- Generator: Sketch 48.1 (47250) - http://www.bohemiancoding.com/sketch -->
    <title>Group</title>
    <desc>Created with Sketch.</desc>
    <defs></defs>
    <g id="从角色模板导入权限－空" stroke="none" stroke-width="1" fill="none" fill-rule="evenodd" transform="translate(-382.000000, -115.000000)">
        <g id="Group-57" transform="translate(381.000000, 114.000000)">
            <g id="Group-59">
                <g id="Group" transform="translate(1.000000, 1.000000)">
                    <path d="M31.7038277,4.17443857e-14 L-3.55271368e-15,27.8532605 L-2.22044605e-16,2 C-3.57315355e-16,0.8954305 0.8954305,-1.91384796e-17 2,-2.22044605e-16 L31.7038277,-3.70537904e-17 Z" id="Combined-Shape" fill="#24A7E3"></path>
                    <path d="M6.96391009,8.65294437 C7.63058009,9.18940538 8.31286494,9.77794116 9.01078509,10.4185694 C8.83890923,10.5852369 8.68005666,10.7440894 8.53422259,10.8951319 C8.31807568,10.6815891 8.09932787,10.4706537 7.87797259,10.2623194 C7.18265662,10.2909653 6.47172623,10.3248192 5.74516009,10.3638819 L5.74516009,12.1216944 C5.74516009,12.7154473 5.43266322,13.0123194 4.80766009,13.0123194 C4.55245048,13.0123194 4.21651634,13.0071111 3.79984759,12.9966944 C3.7738058,12.8039851 3.73995197,12.5904455 3.69828509,12.3560694 C4.13578728,12.4029446 4.47172142,12.4263819 4.70609759,12.4263819 C4.99255736,12.4263819 5.13578509,12.2857583 5.13578509,12.0045069 L5.13578509,10.3951319 C4.50296943,10.4289862 3.85974669,10.4654442 3.20609759,10.5045069 C2.90922111,10.5201319 2.61495322,10.5539858 2.32328509,10.6060694 L2.06547259,9.93419437 C2.40922431,9.87169405 2.73474189,9.77013257 3.04203509,9.62950687 C3.83891408,9.23887991 4.57849001,8.84565468 5.26078509,8.44981937 C4.35453056,8.52013222 3.5941215,8.58263159 2.97953509,8.63731937 C2.70870041,8.66336116 2.5029733,8.69200671 2.36234759,8.72325687 L2.11234759,8.06700687 C2.36234884,8.00450655 2.5967215,7.91336163 2.81547259,7.79356937 C3.46912169,7.42898421 4.12406306,6.99799894 4.78031634,6.50060062 C3.88708271,6.55528839 2.98214384,6.60346499 2.06547259,6.64513187 C2.02901408,6.46283929 1.98213955,6.28054944 1.92484759,6.09825687 C4.40923501,6.0045064 6.61494212,5.86127866 8.54203509,5.66856937 L8.65922259,6.22325687 C7.52900861,6.31700733 6.38188466,6.4016419 5.21781634,6.47716312 L5.53422259,6.69981937 C4.71651017,7.2466971 3.96130939,7.70762999 3.26859759,8.08263187 C4.43527009,8.01752737 5.40140626,7.955028 6.16703509,7.89513187 C6.68787103,7.56179687 7.16963705,7.22586272 7.61234759,6.88731937 L8.12016009,7.30138187 C6.81286189,8.23367819 5.29464791,9.1060653 3.56547259,9.91856937 C4.60193611,9.88211085 5.85843396,9.8274239 7.33500384,9.75450687 C7.07458587,9.51492233 6.81286974,9.28054968 6.54984759,9.05138187 L6.96391009,8.65294437 Z M6.50297259,11.2154444 L6.90141009,10.7935694 C7.55766337,11.2310716 8.27901033,11.7545038 9.06547259,12.3638819 L8.60453509,12.8716944 C7.87536478,12.2675247 7.17485095,11.7154469 6.50297259,11.2154444 Z M3.44828509,10.8013819 L3.95609759,11.1998194 C3.28942759,11.7987807 2.58891376,12.3768999 1.85453509,12.9341944 C1.72953447,12.7831519 1.58630673,12.6242994 1.42484759,12.4576319 C2.10193431,11.9940879 2.77640673,11.4420101 3.44828509,10.8013819 Z M15.7217226,7.53575687 C16.1592248,8.12430147 16.607137,8.78835733 17.0654726,9.52794437 C16.88318,9.63211155 16.6904736,9.74929788 16.4873476,9.87950687 C16.3571386,9.65815159 16.2321399,9.44591413 16.1123476,9.24278812 C15.8701589,9.25841319 15.6201614,9.27273597 15.3623476,9.28575687 L15.3623476,11.9341944 C15.3623476,12.2519043 15.4795339,12.4107569 15.7139101,12.4107569 L16.0967226,12.4107569 C16.3519322,12.4107569 16.4977641,12.2805498 16.5342226,12.0201319 C16.5758895,11.7076303 16.6019309,11.369092 16.6123476,11.0045069 C16.7842235,11.0774239 16.9925547,11.152944 17.2373476,11.2310694 C17.1956807,11.6841966 17.1514103,12.0357556 17.1045351,12.2857569 C17.0316181,12.7388841 16.7581833,12.9654444 16.2842226,12.9654444 L15.6123476,12.9654444 C15.0446364,12.9654444 14.7607851,12.6399268 14.7607851,11.9888819 L14.7607851,9.32091312 C14.469117,9.33653819 14.1670367,9.35476718 13.8545351,9.37560062 C13.8128682,10.5084188 13.6670363,11.2987755 13.4170351,11.7466944 C13.1201586,12.3196139 12.5654767,12.7935675 11.7529726,13.1685694 C11.6383887,13.0071102 11.5055775,12.8326328 11.3545351,12.6451319 C12.1097472,12.3378387 12.6149505,11.9341969 12.8701601,11.4341944 C13.1045363,11.0357549 13.2308371,10.3625845 13.2490663,9.41466312 C13.142295,9.42247565 13.0342231,9.42898601 12.9248476,9.43419437 C12.7008881,9.4550278 12.4925569,9.48888163 12.2998476,9.53575687 L12.0342226,8.92638187 C12.258182,8.8326314 12.4378677,8.70763265 12.5732851,8.55138187 C12.963912,8.0852337 13.3310959,7.57742628 13.6748476,7.02794437 L11.9717226,7.02794437 L11.9717226,6.47325687 L14.4639101,6.47325687 C14.2685966,6.1737762 14.0837026,5.90815386 13.9092226,5.67638187 L14.4248476,5.35606937 C14.6227652,5.60086226 14.8441172,5.89252601 15.0889101,6.23106937 L14.7178163,6.47325687 L17.0967226,6.47325687 L17.0967226,7.02794437 L13.9248476,7.02794437 L14.3545351,7.21544437 C13.9222413,7.79878062 13.4977663,8.33523358 13.0810976,8.82481937 C14.0628733,8.79096503 14.9652081,8.75580913 15.7881288,8.71935062 C15.5902112,8.40164069 15.401411,8.11127901 15.2217226,7.84825687 L15.7217226,7.53575687 Z M10.4639101,10.1685694 C10.8805788,10.1112774 11.4144277,10.0331532 12.0654726,9.93419437 C12.0342224,10.1425287 12.008181,10.3352351 11.9873476,10.5123194 C11.3363027,10.6008615 10.5915185,10.7128395 9.75297259,10.8482569 L9.62797259,10.2857569 C9.95349505,9.95242187 10.3402099,9.40945854 10.7881288,8.65685062 C10.2464595,8.69330913 9.85714044,8.72065261 9.62016009,8.73888187 L9.47172259,8.20763187 C9.93005822,7.60346218 10.4248449,6.6815964 10.9560976,5.44200687 L11.5498476,5.67638187 C11.0446367,6.66597015 10.5837038,7.49408687 10.1670351,8.16075687 C10.5081826,8.15554851 10.8154712,8.14773608 11.0889101,8.13731937 C11.2451609,7.85867214 11.4092217,7.55659183 11.5810976,7.23106937 L12.1670351,7.48888187 C11.5732821,8.52534538 11.0055795,9.41856562 10.4639101,10.1685694 Z M9.44828509,11.8091944 C10.3128727,11.6425269 11.206093,11.4550287 12.1279726,11.2466944 C12.1071392,11.5175291 12.0967226,11.7050272 12.0967226,11.8091944 C11.1540095,12.0175287 10.3311011,12.2154434 9.62797259,12.4029444 L9.44828509,11.8091944 Z" id="系统" fill="#FFFFFF" transform="translate(9.331098, 9.262319) rotate(-42.000000) translate(-9.331098, -9.262319) "></path>
                </g>
            </g>
        </g>
    </g>
</svg>