{
  "namespace_detail": "Namespace Detail",
  "enter_namespace": "Administration Platform",
  "change_to_admin_view": "Switch to admin",
  "change_to_admin_view_confirm": "Confirm to switch to admin view?",
  "change_to_user_view_confirm": "Confirm to switch to user view?",
  "zero_state_hint": "No {{ resourceName }}",
  "display_app_advanced": "Advanced Config",
  "display_container_advanced": "Advanced Config",
  "app_affinity_hint": "Deploy instances of this app with nodes already have instances of apps deployed",
  "app_antiaffinity_hint": "Don't deploy instances of this app with nodes already have instances of apps deployed",
  "no_route": "No routes config",
  "add_route": "Add Route",
  "sub_path": "Subpath",
  "select_storage": "Select Storage",
  "storage_name": "Storage Name",
  "select_image_tag": "Select image tag",
  "input_image_tag": "Input image tag",
  "app_address": "Address",
  "no_project": "No Project",
  "projects_empty_hint": "No project avaliable",
  "project_has_no_cluster": "No cluster avaliable",
  "no_namespace": "No namespace avaliable",
  "cluster_app_create_error": "Failed to create application {{appName}} in cluster {{clusterName}}",
  "cluster_app_create_success": "Application {{appName}} created success in cluster {{clusterName}}",
  "cluster_app_update_error": "Failed to update application {{appName}} in cluster {{clusterName}}",
  "cluster_app_update_success": "Application {{appName}} updated success in cluster {{clusterName}}",
  "cluster_app_delete_error": "Failed to deleted application {{appName}} in cluster {{clusterName}}",
  "cluster_app_delete_success": "Application {{appName}} deleted success in cluster {{clusterName}}",
  "cluster_configMap_create_error": "Failed to create configMap {{name}} in cluster {{clusterName}}",
  "cluster_configMap_create_success": "ConfigMap {{name}} created success in cluster {{clusterName}}",
  "cluster_configMap_update_error": "Failed to update configMap {{name}} in cluster {{clusterName}}",
  "cluster_configMap_update_success": "ConfigMap {{name}} updated success in cluster {{clusterName}}",
  "cluster_configMap_delete_error": "Failed to deleted configMap {{name}} in cluster {{clusterName}}",
  "cluster_configMap_delete_success": "ConfigMap {{name}} deleted success in cluster {{clusterName}}",
  "cluster_pvc_create_error": "Failed to create volume {{name}} in cluster {{clusterName}}",
  "cluster_pvc_create_success": "Volume {{name}} created success in cluster {{clusterName}}",
  "cluster_pvc_update_error": "Failed to update volume {{name}} in cluster {{clusterName}}",
  "cluster_pvc_update_success": "Volume {{name}} updated success in cluster {{clusterName}}",
  "cluster_pvc_delete_error": "Failed to deleted volume {{name}} in cluster {{clusterName}}",
  "cluster_pvc_delete_success": "Volume {{name}} deleted success in cluster {{clusterName}}",
  "app_delete_success": "Application has been deleted",
  "missing_current_namespace_cluster": "Missing cluster of current namespace",
  "app_name_exists": "Application name already exists",
  "select_image": "Select Image",
  "image_address": "Image Address",
  "please_input_image_address_and_version": "Please input image address and version",
  "affinity_app_self": "Self",
  "app_owner": "Owner",
  "poll_logs": "Auto Refresh",
  "write_in": "Write In",
  "delete_app": "Delete Application",
  "app_service_delete_selected_cluster_app_confirm": "Confirm to delete selected cluster's application {{app_name}} ?",
  "kube_service": "Service",
  "create_kube_service": "Create Service",
  "update_kube_service": "Update Service",
  "ip_address": "Ip Address",
  "kube_service_name": "Service Name",
  "target_app": "Target Application",
  "please_select_app": "Please select application",
  "target_port": "Target Port",
  "port_name": "Port Name",
  "delete_kube_service_confirm": "Confirm to delete service {{ name }}?",
  "update_kube_service_confirm": "Confirm to update service {{ name }}?",
  "create_kube_service_confirm": "Confirm to create new {{ name }} service?",
  "delete_kube_service_success": "Delete service {{ name }} success",
  "delete_kube_service_error": "Delete service {{ name }} error",
  "update_kube_service_success": "Update service {{ name }} success",
  "update_kube_service_error": "Update service {{ name }} error",
  "create_kube_service_success": "Create service {{ name }} success",
  "create_kube_service_error": "Create service {{ name }} error",
  "view_yaml": "View YAML",
  "route": "Route",
  "create_route": "Create Route",
  "update_route": "Update Route",
  "route_name": "Route Name",
  "delete_route_confirm": "Confirm to delete route {{ name }}?",
  "update_route_confirm": "Confirm to update route {{ name }}?",
  "create_route_confirm": "Confirm to create route {{ name }}?",
  "delete_route_success": "Delete route {{ name }} success",
  "delete_route_error": "Delete route {{ name }} error",
  "update_route_success": "Update route {{ name }} success",
  "update_route_error": "Update route {{ name }} error",
  "create_route_success": "Create route {{ name }} success",
  "create_route_error": "Create route {{ name }} error",
  "update_password_error": "Update Password Error",
  "private_registry": "Private Registry",
  "public_registry": "Public Registry",
  "kube_service_tips": "Kubernete Service is an abstraction that defines a set of Pod policies, which we sometimes call macro services. These service-tagged Pods are normally bound by the Label Selector",
  "image_upload": "Image Upload",
  "create_configmap": "Create Configmap",
  "form": "Form",
  "log_platform": "Log Platform",
  "mirror_cluster_select_tip": "The cluster is a federated member. The current resources are deployed in the selected cluster at the same time. Please update the cluster carefully.",
  "update_cluster": "Update Cluster"
}
