{
  "namespace_detail": "命名空间详情",
  "enter_namespace": "进入命名空间",
  "change_to_admin_view": "管理视图",
  "change_to_admin_view_confirm": "确定切换到管理视图?",
  "change_to_user_view_confirm": "确定切换到用户视图?",
  "zero_state_hint": "无{{ resourceName }}",
  "display_app_advanced": "应用高级",
  "display_container_advanced": "容器高级",
  "app_affinity_hint": "将本应用的实例与此应用的实例部署在同一台机器上",
  "app_antiaffinity_hint": "不将本应用的实例与此应用的实例部署在同一台机器上",
  "no_route": "无路由信息",
  "add_route": "添加路由",
  "sub_path": "子路径",
  "select_storage": "选择存储卷",
  "storage_name": "存储卷名称",
  "select_image_tag": "选择镜像版本",
  "input_image_tag": "输入镜像版本",
  "app_address": "访问地址",
  "no_project": "无项目",
  "projects_empty_hint": "当前未在任何项目中",
  "project_has_no_cluster": "当前项目下没有集群",
  "no_namespace": "无命名空间",
  "cluster_app_create_error": "应用 {{appName}} 在集群 {{clusterName}} 中创建失败",
  "cluster_app_create_success": "应用 {{appName}} 在集群 {{clusterName}} 中创建成功",
  "cluster_app_update_error": "应用 {{appName}} 在集群 {{clusterName}} 中更新失败",
  "cluster_app_update_success": "应用 {{appName}} 在集群 {{clusterName}} 中更新成功",
  "cluster_app_delete_error": "应用 {{appName}} 在集群 {{clusterName}} 中删除失败",
  "cluster_app_delete_success": "应用 {{appName}} 在集群 {{clusterName}} 中删除成功",
  "cluster_configMap_create_error": "configMap {{name}} 在集群 {{clusterName}} 中创建失败",
  "cluster_configMap_create_success": "configMap {{name}} 在集群 {{clusterName}} 中创建成功",
  "cluster_configMap_update_error": "configMap {{name}} 在集群 {{clusterName}} 中更新失败",
  "cluster_configMap_update_success": "configMap {{name}} 在集群 {{clusterName}} 中更新成功",
  "cluster_configMap_delete_error": "configMap {{name}} 在集群 {{clusterName}} 中删除失败",
  "cluster_configMap_delete_success": "configMap {{name}} 在集群 {{clusterName}} 中删除成功",
  "cluster_pvc_create_error": "存储卷 {{name}} 在集群 {{clusterName}} 中创建失败",
  "cluster_pvc_create_success": "存储卷 {{name}} 在集群 {{clusterName}} 中创建成功",
  "cluster_pvc_update_error": "存储卷 {{name}} 在集群 {{clusterName}} 中更新失败",
  "cluster_pvc_update_success": "存储卷 {{name}} 在集群 {{clusterName}} 中更新成功",
  "cluster_pvc_delete_error": "存储卷 {{name}} 在集群 {{clusterName}} 中删除失败",
  "cluster_pvc_delete_success": "存储卷 {{name}} 在集群 {{clusterName}} 中删除成功",
  "app_delete_success": "应用已删除",
  "missing_current_namespace_cluster": "需要选择当前命名空间所属集群",
  "app_name_exists": "应用名称已存在",
  "select_image": "选择镜像",
  "image_address": "镜像地址",
  "please_input_image_address_and_version": "请输入镜像地址及版本",
  "affinity_app_self": "本应用",
  "app_owner": "负责人",
  "poll_logs": "自动更新",
  "write_in": "写入",
  "delete_app": "删除应用",
  "app_service_delete_selected_cluster_app_confirm": "确定要删除已选择集群的应用 {{app_name}} ?",
  "kube_service": "内部路由",
  "create_kube_service": "创建内部路由",
  "update_kube_service": "更新内部路由",
  "ip_address": "Ip 地址",
  "kube_service_name": "路由名称",
  "target_app": "目标应用",
  "please_select_app": "请选择应用",
  "target_port": "目标端口",
  "port_name": "端口名称",
  "delete_kube_service_confirm": "确定要删除内部路由{{ name }}吗?",
  "update_kube_service_confirm": "确定要更新内部路由{{ name }}吗?",
  "create_kube_service_confirm": "确定要创建内部路由{{ name }}吗?",
  "delete_kube_service_success": "删除内部路由{{ name }}成功",
  "delete_kube_service_error": "删除内部路由{{ name }}失败",
  "update_kube_service_success": "更新内部路由{{ name }}成功",
  "update_kube_service_error": "更新内部路由{{ name }}失败",
  "create_kube_service_success": "创建内部路由{{ name }}成功",
  "create_kube_service_error": "创建内部路由{{ name }}失败",
  "view_yaml": "查看YAML",
  "route": "外部路由",
  "create_route": "创建外部路由",
  "update_route": "更新外部路由",
  "route_name": "路由名称",
  "delete_route_confirm": "确定要删除外部路由{{ name }}吗?",
  "update_route_confirm": "确定要更新外部路由{{ name }}吗?",
  "create_route_confirm": "确定要创建外部路由{{ name }}吗?",
  "delete_route_success": "删除外部路由{{ name }}成功",
  "delete_route_error": "删除外部路由{{ name }}失败",
  "update_route_success": "更新外部路由{{ name }}成功",
  "update_route_error": "更新外部路由{{ name }}失败",
  "create_route_success": "创建外部路由{{ name }}成功",
  "create_route_error": "创建外部路由{{ name }}失败",
  "update_password_error": "更新密码出错",
  "private_registry": "私有仓库源",
  "public_registry": "公有仓库源",
  "kube_service_tips": "Kubernete Service 是一个定义了一组Pod的策略的抽象，我们也有时候叫做宏观服务。这些被服务标记的Pod一般情况下通过label Selector绑定",
  "image_upload": "镜像上传",
  "create_configmap": "创建配置",
  "form": "表单",
  "log_platform": "日志平台",
  "mirror_cluster_select_tip": "所在集群属于联邦成员，当前资源会在所选集群内同时部署，请慎重更新集群。",
  "update_cluster": "更新集群"
}
