<?xml version="1.0" standalone="no"?>
<!DOCTYPE svg PUBLIC "-//W3C//DTD SVG 1.1//EN" "http://www.w3.org/Graphics/SVG/1.1/DTD/svg11.dtd" >
<svg xmlns="http://www.w3.org/2000/svg">
<metadata>Generated by IcoMoon</metadata>
<defs>
<font id="icomoon" horiz-adv-x="1024">
<font-face units-per-em="1024" ascent="960" descent="-64" />
<missing-glyph horiz-adv-x="1024" />
<glyph unicode="&#x20;" horiz-adv-x="512" d="" />
<glyph unicode="&#xe900;" glyph-name="arrow-right" horiz-adv-x="701" d="M667.305 418.725c44.436 30.047 44.436 79.178 0 109.226l-616.58 416.77c-44.436 30.047-63.257 14.389-41.84-34.784l151.093-346.609c21.431-49.172 21.445-129.635 0.069-178.821l-151.231-347.741c-21.376-49.186-2.527-64.845 41.909-34.811l616.58 416.77z" />
<glyph unicode="&#xe901;" glyph-name="besom" horiz-adv-x="878" d="M166.445 353.683c-15.971 0-29.866 5.91-41.686 17.73s-17.73 26.042-17.73 42.668c16.625 22.372 43.465 62.309 80.519 119.813 30.040 40.265 62.953 60.397 98.74 60.397h89.139l29.723 239.656 14.386 17.269c5.746 6.401 16.452 15.030 32.116 25.889s30.204 16.288 43.618 16.288c13.415 0 27.791-4.795 43.128-14.386 3.844-2.556 7.362-5.112 10.552-7.669s6.227-5.112 9.11-7.669c2.883-2.556 5.603-4.949 8.159-7.178s4.795-4.622 6.718-7.178l12.454-15.337-29.723-239.656h88.188c16.625 0 34.519-5.593 53.68-16.779s35.459-27.003 48.894-47.453c37.075-56.87 63.281-95.529 78.618-115.979 0-17.893-5.91-32.433-17.73-43.618s-25.715-16.779-41.686-16.779l-599.187-0.031zM523.981-34.528c-56.87-19.815-96.49-29.723-118.862-29.723-24.928 0-65.826 9.908-122.696 29.723s-95.529 29.723-115.979 29.723c-12.147 0-25.408-1.922-39.784-5.767s-26.042-7.515-34.999-11.012c-8.957-3.497-20.46-8.446-34.508-14.846-8.302-3.844-14.376-6.564-18.22-8.159s-8.793-3.354-14.846-5.276c-6.053-1.922-10.368-2.883-12.944-2.883-2.556 0.634-4.795 1.595-6.718 2.883-2.556 1.288-3.998 4.008-4.325 8.159s0.153 9.427 1.442 15.828c1.288 6.401 3.211 14.386 5.767 23.956l10.552 31.625c3.844 11.513 7.996 24.294 12.454 38.343 9.591 27.484 18.701 53.69 27.331 78.618s16.462 48.894 23.496 71.9c7.669 23.006 13.742 41.543 18.22 55.612l7.669 20.122h717.957c23.639-132.921 40.572-233.256 50.796-301.004 1.288-8.957 1.932-16.625 1.932-23.006 0-3.19-0.164-5.91-0.491-8.159s-0.644-4.325-0.951-6.227c-0.307-1.902-1.104-3.66-2.393-5.276s-2.566-2.73-3.834-3.343c-3.844-1.288-7.045-2.249-9.601-2.883-1.288-0.634-3.047-0.798-5.276-0.491s-4.949 0.951-8.159 1.932c-3.211 0.982-6.084 1.943-8.619 2.883s-5.092 1.738-7.669 2.393c-4.478 1.922-11.513 4.478-21.104 7.669-18.527 7.669-33.864 13.425-46.011 17.269-3.844 1.288-8.323 2.566-13.435 3.834s-10.869 2.546-17.269 3.834c-6.401 1.288-13.435 2.883-21.104 4.785-3.19 0.634-6.39 1.114-9.601 1.442s-6.411 0.808-9.601 1.442c-3.19 0.634-6.39 0.951-9.601 0.951l-9.601 1.932h-9.11c0 0-3.037 0.164-9.11 0.491s-9.274 0.491-9.601 0.491c-24.14-0.061-64.722-9.969-121.592-29.784z" />
<glyph unicode="&#xe902;" glyph-name="cpu" d="M835.877 818.638h-629.353c-35.502 0-64.549-29.048-64.549-64.549v-629.354c0-35.502 29.047-64.549 64.549-64.549h629.354c35.502 0 64.549 29.048 64.549 64.549v629.354c0 35.501-29.047 64.549-64.55 64.549v0zM771.328 286.107c0-53.392-43.432-96.824-96.824-96.824h-306.608c-53.392 0-96.824 43.432-96.824 96.824v306.608c0 53.392 43.432 96.824 96.824 96.824h306.608c53.392 0 96.824-43.432 96.824-96.824v-306.608zM674.504 624.991h-306.608c-17.8 0-32.274-14.482-32.274-32.274v-306.608c0-17.792 14.474-32.274 32.274-32.274h306.608c17.8 0 32.274 14.482 32.274 32.274v306.607c0 17.792-14.474 32.275-32.274 32.275v0zM353.635 924.469c0 19.481-15.795 35.277-35.277 35.277s-35.277-15.795-35.277-35.277v-79.373h70.553v79.373zM0.867 430.592c0-19.481 15.795-35.277 35.277-35.277h79.373v70.553h-79.373c-19.482 0.001-35.277-15.794-35.277-35.277v0zM547.658 924.469c0 19.481-15.795 35.277-35.277 35.277s-35.277-15.795-35.277-35.277v-79.373h70.553v79.373zM741.68 924.469c0 19.481-15.795 35.277-35.277 35.277s-35.277-15.795-35.277-35.277v-79.373h70.553v79.373zM1023.895 624.615c0 19.481-15.795 35.277-35.277 35.277h-61.735v-70.553h61.735c19.481 0 35.277 15.795 35.277 35.277v0zM0.867 624.615c0-19.481 15.795-35.277 35.277-35.277h79.373v70.553h-79.373c-19.482 0-35.277-15.794-35.277-35.277v0zM988.618 271.847h-61.735v-70.553h61.735c19.481 0 35.277 15.795 35.277 35.277s-15.795 35.277-35.277 35.277v0zM988.618 465.87h-61.735v-70.553h61.735c19.481 0 35.277 15.795 35.277 35.277s-15.795 35.277-35.277 35.277v0zM671.127-28.006c0-19.481 15.795-35.277 35.277-35.277s35.277 15.795 35.277 35.277v61.735h-70.553v-61.735zM283.081-28.006c0-19.481 15.795-35.277 35.277-35.277s35.277 15.795 35.277 35.277v61.735h-70.553v-61.735zM477.104-28.006c0-19.481 15.795-35.277 35.277-35.277s35.277 15.795 35.277 35.277v61.735h-70.553v-61.735zM0.867 236.57c0-19.481 15.795-35.277 35.277-35.277h79.373v70.553h-79.373c-19.482 0-35.277-15.795-35.277-35.277v0z" />
<glyph unicode="&#xe903;" glyph-name="dashboard" horiz-adv-x="951" d="M0.206 440.892c0-261.372 213.618-475.222 474.707-475.222s474.707 213.85 474.707 475.222c0 261.372-213.618 475.222-474.707 475.222s-474.707-213.85-474.707-475.222zM474.913 789.388c191.993-0.528 347.591-156.295 348.119-348.496 0-15.841-1.582-31.681-3.165-47.522h-140.83c-15.824 0-29.010-11.617-31.647-26.929-15.296-95.572-104.436-160.52-199.905-145.207-74.371 12.145-132.918 70.227-145.049 145.207-2.11 15.841-15.824 27.457-31.647 26.929h-140.83c-1.582 15.841-3.165 31.681-3.165 47.522 0.527 192.201 156.126 347.968 348.119 348.496v0zM438.519 323.671c37.977-20.593 87.030-4.752 107.6 33.266 30.065 55.443 87.030 299.39 72.788 305.726-14.241 7.92-183.554-175.832-212.036-232.859-21.098-35.906-8.967-82.372 26.9-103.493 1.582-1.056 3.165-2.112 4.747-2.64v0z" />
<glyph unicode="&#xe904;" glyph-name="integration" horiz-adv-x="939" d="M7.194 638.467c-13.775 26.695-8.688 65.74 23.674 84.877l407.87 227.281c9.314 5.502 19.862 8.4 30.598 8.406 10.736-0.006 21.284-2.903 30.597-8.405l407.87-227.282c10.163-6.009 18.357-14.654 23.696-24.998 7.357-14.254 9.137-31.456 4.886-47.197-4.472-16.555-15.145-30.225-30.058-38.491l-407.87-212.171c-8.955-4.953-18.959-7.549-29.123-7.558-10.164 0.008-20.168 2.604-29.123 7.557l-407.87 212.171c-10.838 6.008-19.534 14.932-25.148 25.811 0-0.001 0-0.001 0 0v0zM5.472 401.093c-6.857 13.287-6.826 29.117 0.084 42.345 11.373 21.776 37.82 29.96 58.957 18.243l393.501-201.557c7.293-4.060 16.082-4.052 23.368 0.021l392.793 203.088c10.247 5.68 22.020 6.907 33.155 3.461s20.3-11.153 25.808-21.701l0.104-0.199c11.211-21.722 3.221-48.88-17.812-60.54l-392.804-203.091c-16.276-9.021-34.928-15.443-53.292-15.442-18.367 0-36.332 6.422-52.598 15.438l-393.502 201.557c-7.556 4.178-13.738 10.574-17.762 18.376v0zM5.472 172.775c-6.857 13.287-6.826 29.115 0.084 42.344 5.509 10.55 14.676 18.257 25.809 21.703 11.135 3.446 22.907 2.218 33.147-3.46l393.502-201.558c7.291-4.059 16.079-4.052 23.364 0.019l392.796 203.090c21.146 11.72 47.593 3.536 58.963-18.237l0.104-0.199c11.211-21.722 3.221-48.88-17.813-60.54l-392.804-203.092c-16.276-9.021-34.584-16.476-52.95-16.474-18.366-0.001-36.673 7.453-52.94 16.47l-393.501 201.557c-7.557 4.178-13.739 10.575-17.762 18.378v0z" />
<glyph unicode="&#xe905;" glyph-name="mem" horiz-adv-x="896" d="M778.593 520.901c0 24.702 20.025 44.727 44.727 44.727h72.68v130.466c0 24.838-12.465 46.755-31.473 59.865l-181.685 181.512c-13.238 13.872-31.892 22.529-52.579 22.529-2.394 0-4.759-0.123-7.095-0.349h-543.388c-2.358 0.231-4.725 0.347-7.094 0.349-40.143 0-72.686-32.542-72.686-72.686 0-0.059 0.004-0.116 0.004-0.175h-0.004v-44.728h-0.001v-778.412c0.002-40.144 32.545-72.685 72.687-72.685 2.749 0.005 5.496 0.164 8.227 0.477l742.406-0.477c40.141 0.004 72.68 32.545 72.68 72.687v289.763l-72.681-0.001c-24.702 0-44.727 20.025-44.727 44.727h-0.003v122.411h0.004zM475.69 658.618v183.795c0 24.701 20.025 44.726 44.728 44.726 24.701 0 44.727-20.025 44.727-44.726 0-1.192-0.062-2.368-0.152-3.534v-183.795c0-24.7-20.025-44.726-44.728-44.726s-44.727 20.025-44.727 44.727c0 1.192 0.062 2.367 0.152 3.534v-0.001zM296.779 658.612v183.801c0 24.701 20.025 44.726 44.727 44.726s44.727-20.025 44.727-44.726c0-1.19-0.061-2.363-0.151-3.528v-183.8c0-24.7-20.025-44.726-44.727-44.726s-44.728 20.025-44.728 44.727c0 1.187 0.062 2.361 0.151 3.527l0.001-0.001zM117.793 658.612v183.801c0 24.701 20.025 44.726 44.727 44.726s44.728-20.025 44.728-44.726c0-1.19-0.062-2.363-0.152-3.528v-183.8c0-24.7-20.025-44.726-44.727-44.726s-44.728 20.025-44.728 44.727c0 1.187 0.061 2.361 0.152 3.527v-0.001zM682.841 154.881c0-24.702-20.025-44.728-44.727-44.728l-475.972 0.007c-24.563 0.164-44.425 20.121-44.425 44.72h-0.303v131.326c0 24.702 20.025 44.727 44.728 44.727l0.041-0.001h475.932c24.702 0 44.726-20.025 44.727-44.725v-131.326h-0.001zM749.363 63.988v0z" />
<glyph unicode="&#xe906;" glyph-name="oschina" horiz-adv-x="1166" d="M1017.492 374.873v-290.118h-869.799v727.527h579.866v-437.409h-289.933v147.291h147.197v147.291h-294.393v-437.409h584.326v727.527h-874.259v-1022.108h1164.192v437.409zM1017.492 959.573h147.197v-147.291h-147.197zM1017.492 647.138h147.197v-147.291h-147.197z" />
<glyph unicode="&#xe907;" glyph-name="project" d="M592.090 85.472c0-82.314 66.962-149.277 149.267-149.277h132.644c82.304 0 149.267 66.962 149.267 149.289v132.665c0 82.293-66.962 149.237-149.267 149.237h-32.507c-7.847 36.986-28.507 68.19-57.019 89.449-15.677 15.094-50.704 29.652-89.131 29.652h-123.253c26.855 11.962 48.833 30.771 64.319 54.24l74.943 70.647c27.002 26.868 43.713 64.057 43.713 105.15-0.001 40.28-15.526 77.763-43.713 105.939l-93.796 93.815c-26.866 27.008-64.056 43.722-105.151 43.722-40.288-0.001-77.782-15.526-105.959-43.723l-93.775-93.806c-27.013-26.856-43.732-64.041-43.732-105.132 0.001-40.265 15.526-77.759 43.723-105.958l93.786-93.786c19.778-19.83 45.135-34.087 73.517-40.213l-151.973 9.122c-36.899 0-72.34-13.627-99.788-38.345-26.511-23.884-40.097-43.595-44.292-80.774l-34.615 0.009c-82.324-0.009-149.298-66.962-149.298-149.247v-132.675c0-82.314 66.974-149.277 149.289-149.277h132.624c82.324 0 149.298 66.962 149.298 149.289v132.665c0 82.293-66.974 149.237-149.298 149.237h-23.148c11.863 26.886 38.286 45.313 69.013 45.313h367.529c30.924 0 57.348-18.428 69.022-44.833l-22.969-0.481c-82.304 0-149.267-66.944-149.267-149.237l-0.003-132.676z" />
<glyph unicode="&#xe908;" glyph-name="sync-registry" horiz-adv-x="913" d="M358.286 73.399c10.65-24.496 24.302-47.387 40.49-68.209h-364.91c-9.182 0-17.1 3.382-23.814 10.125-6.694 6.743-10.051 14.74-10.051 23.97v886.621c0 9.23 3.337 17.226 10.051 23.97s14.632 10.125 23.814 10.125h677.023c9.162 0 17.1-3.382 23.814-10.125 6.694-6.743 10.051-14.74 10.051-23.97v-423.236c-30.056 9.434-62.037 14.52-95.204 14.52-13.632 0-27.064-0.86-40.245-2.527v18.967c0 4.973-1.58 9.071-4.759 12.253s-7.227 4.794-12.164 4.794h-33.845c-4.937 0-8.985-1.611-12.164-4.794-3.179-3.203-4.759-7.28-4.759-12.253v-34.095c0-0.392 0.010-0.778 0.029-1.159-50.12-18.115-94.377-48.49-129.149-87.5-0.497-0.395-0.976-0.823-1.436-1.284-0.988-0.989-1.821-2.061-2.501-3.218-45.631-53.166-73.971-121.599-76.293-196.576h-44.519c-4.937 0-8.985-1.611-12.164-4.794-3.179-3.203-4.759-7.28-4.759-12.253v-102.304c0-4.973 1.58-9.071 4.759-12.253 3.179-3.203 7.227-4.794 12.164-4.794h70.542zM387.459 200.104c0 144.533 117.174 261.734 261.674 261.734s261.674-117.143 261.674-261.734c0-144.533-117.174-261.734-261.674-261.734s-261.674 117.201-261.674 261.734zM775.384 195.713c-30.131-190.444-208.046-105.321-208.046-92.337 11.478 15.87 28.696 36.069 28.696 36.069h-107.61v-106.764c0 0 27.261 24.527 43.044 36.069 7.174-40.397 249.655-129.848 301.307 128.405-20.087-2.886-33-1.443-57.392-1.443v0zM531.469 202.927c30.131 189.001 208.046 103.879 208.046 92.337-11.478-14.428-28.696-36.069-28.696-36.069h107.61v106.764c0 0-27.261-24.527-43.044-36.069-7.174 40.397-249.655 129.848-301.307-128.405 20.087 2.886 33 1.443 57.392 1.443zM203.111 772.439v34.095c0 4.973-1.58 9.051-4.759 12.253s-7.227 4.794-12.164 4.794h-33.845c-4.937 0-9.004-1.591-12.164-4.794-3.179-3.203-4.759-7.28-4.759-12.253v-34.095c0-4.973 1.599-9.071 4.759-12.253s7.227-4.794 12.164-4.794h33.845c4.937 0 8.985 1.611 12.164 4.794 3.179 3.203 4.759 7.28 4.759 12.253zM203.111 636.041v34.095c0 4.973-1.58 9.071-4.759 12.253-3.179 3.203-7.227 4.794-12.164 4.794h-33.845c-4.937 0-9.004-1.611-12.164-4.794s-4.759-7.28-4.759-12.253v-34.095c0-4.973 1.599-9.051 4.759-12.253s7.227-4.794 12.164-4.794h33.845c4.937 0 8.985 1.611 12.164 4.794 3.179 3.203 4.759 7.28 4.759 12.253zM203.111 499.642v34.095c0 4.973-1.58 9.051-4.759 12.253s-7.227 4.794-12.164 4.794h-33.845c-4.937 0-9.004-1.591-12.164-4.794-3.179-3.203-4.759-7.28-4.759-12.253v-34.095c0-4.973 1.599-9.071 4.759-12.253s7.207-4.794 12.164-4.794h33.845c4.937 0 8.985 1.591 12.164 4.794 3.179 3.183 4.759 7.261 4.759 12.253zM203.111 363.244v34.095c0 4.973-1.58 9.071-4.759 12.253-3.179 3.203-7.227 4.794-12.164 4.794h-33.845c-4.937 0-9.004-1.611-12.164-4.794s-4.759-7.28-4.759-12.253v-34.095c0-4.973 1.599-9.071 4.759-12.253s7.227-4.794 12.164-4.794h33.845c4.937 0 8.985 1.611 12.164 4.794s4.759 7.28 4.759 12.253zM203.111 226.845v34.095c0 4.973-1.58 9.071-4.759 12.253-3.179 3.203-7.227 4.794-12.164 4.794h-33.845c-4.937 0-9.004-1.591-12.164-4.794s-4.759-7.28-4.759-12.253v-34.095c0-4.973 1.599-9.051 4.759-12.253 3.179-3.203 7.227-4.794 12.164-4.794h33.845c4.937 0 8.985 1.591 12.164 4.794s4.759 7.28 4.759 12.253zM270.821 806.554v-34.095c0-4.973 1.58-9.071 4.759-12.253 3.179-3.203 7.227-4.794 12.164-4.794h33.845c4.937 0 9.004 1.611 12.164 4.794s4.759 7.28 4.759 12.253v34.095c0 4.973-1.599 9.051-4.759 12.253-3.179 3.203-7.227 4.794-12.164 4.794h-33.845c-4.937 0-8.985-1.591-12.164-4.794s-4.759-7.3-4.759-12.253zM270.821 670.136v-34.095c0-4.973 1.58-9.051 4.759-12.253s7.227-4.794 12.164-4.794h33.845c4.937 0 9.004 1.611 12.164 4.794s4.759 7.28 4.759 12.253v34.095c0 4.973-1.599 9.071-4.759 12.253s-7.227 4.794-12.164 4.794h-33.845c-4.937 0-8.985-1.611-12.164-4.794s-4.759-7.28-4.759-12.253zM270.821 533.737v-34.095c0-4.973 1.58-9.071 4.759-12.253 3.179-3.203 7.227-4.794 12.164-4.794h33.845c4.937 0 9.004 1.591 12.164 4.794s4.759 7.28 4.759 12.253v34.095c0 4.973-1.599 9.051-4.759 12.253-3.179 3.203-7.227 4.794-12.164 4.794h-33.845c-4.937 0-8.985-1.591-12.164-4.794s-4.759-7.28-4.759-12.253zM270.821 397.338v-34.095c0-4.973 1.58-9.071 4.759-12.253 3.179-3.203 7.227-4.794 12.164-4.794h33.845c4.937 0 9.004 1.611 12.164 4.794s4.779 7.28 4.779 12.253v34.095c0 4.973-1.599 9.071-4.759 12.253s-7.227 4.794-12.164 4.794h-33.845c-4.937 0-8.985-1.611-12.164-4.794-3.199-3.203-4.779-7.28-4.779-12.253zM473.932 772.439v34.095c0 4.973-1.599 9.051-4.759 12.253-3.179 3.203-7.227 4.794-12.164 4.794h-33.845c-4.937 0-9.004-1.591-12.164-4.794-3.179-3.203-4.759-7.28-4.759-12.253v-34.095c0-4.973 1.599-9.071 4.759-12.253s7.227-4.794 12.164-4.794h33.845c4.937 0 8.985 1.611 12.164 4.794s4.759 7.28 4.759 12.253zM473.932 636.041v34.095c0 4.973-1.599 9.071-4.759 12.253s-7.227 4.794-12.164 4.794h-33.845c-4.937 0-9.004-1.611-12.164-4.794s-4.759-7.28-4.759-12.253v-34.095c0-4.973 1.599-9.051 4.759-12.253s7.227-4.794 12.164-4.794h33.845c4.937 0 8.985 1.611 12.164 4.794s4.759 7.28 4.759 12.253zM473.932 499.642v34.095c0 4.973-1.599 9.051-4.759 12.253-3.179 3.203-7.227 4.794-12.164 4.794h-33.845c-4.937 0-9.004-1.591-12.164-4.794-3.179-3.203-4.759-7.28-4.759-12.253v-34.095c0-4.973 1.599-9.071 4.759-12.253s7.207-4.794 12.144-4.794h33.845c4.937 0 8.985 1.591 12.164 4.794s4.779 7.261 4.779 12.253zM609.312 772.439v34.095c0 4.973-1.58 9.051-4.759 12.253s-7.227 4.794-12.164 4.794h-33.845c-4.937 0-8.985-1.591-12.164-4.794s-4.759-7.28-4.759-12.253v-34.095c0-4.973 1.58-9.071 4.759-12.253 3.179-3.203 7.227-4.794 12.164-4.794h33.845c4.937 0 9.004 1.611 12.164 4.794s4.759 7.28 4.759 12.253zM609.304 635.976v34.095c0 4.973-1.58 9.071-4.759 12.253s-7.227 4.794-12.164 4.794h-33.845c-4.937 0-8.985-1.611-12.164-4.794-3.179-3.203-4.759-7.28-4.759-12.253v-34.095c0-4.973 1.58-9.051 4.759-12.253s7.227-4.794 12.164-4.794h33.845c4.937 0 9.004 1.611 12.164 4.794s4.759 7.28 4.759 12.253z" />
</font></defs></svg>