{
  "component": "组件",
  "component_amount": "组件数",
  "component_config": "组件配置",
  "display_component_advanced": "显示组件 - 高级",
  "hide_component_advanced": "隐藏组件 - 高级",
  "component_name": "组件名称",
  "component_labels": "组件标签",
  "app_add_component_confirm": "确定添加组件<b>{{ service_name }}</b>吗?",
  "app_update_component_confirm": "确定更新组件<b>{{ service_name }}</b>吗?",
  "component_list": "组件列表",
  "belonging_component": "所属组件"
}
