{
  "license_activate": "许可证激活",
  "license_not_activated": "许可证未激活",
  "license_is_outdata": "许可证已过期",
  "license_contact": "请联系企业超级管理员更新许可证",
  "product_license": "产品许可证",
  "network_ex": "网络异常，请稍后重试",
  "license_has_activated": "许可证已激活 !",
  "activate_license": "激活许可证",
  "license_disabled": "许可证无效",
  "license_not_match_plateform": "许可证密钥与平台ID不匹配",
  "use_useful_license": "请使用有效的许可证密钥",
  "please_update_license": "请更新许可证密钥",
  "please_edit_matched_license": "请输入匹配的许可证密钥",
  "license_manage": "许可证管理",
  "product_name": "产品名称",
  "customer_name": "授权客户名称",
  "platform": "平台",
  "license_type": "许可证类型",
  "license_code": "许可证密钥",
  "license_outdata": "许可证到期时间",
  "license_outdata_email": "许可证到期提醒邮箱设置",
  "license_outdata_user": "许可证到期提醒人员设置",
  "release_version": "正式版",
  "beta_version": "试用版",
  "license_expire": "许可证有效期剩余",
  "surplus": "剩余",
  "update_license": "更新许可证",
  "to_update_license": "去更新许可证",
  "only_super_user": "仅超级管理员",
  "all_member": "全体成员",
  "beta_day_expire": "试用期剩余",
  "license_expired": "许可证已过期",
  "license_expired_msg": "请更新许可证密钥",
  "license_invalid_registration_code": "许可证密钥与平台 ID 不匹配",
  "license_invalid_registration_code_msg": "请输入匹配的许可证密钥",
  "license_invalid_license_code": "许可证无效",
  "license_invalid_license_code_msg": "请使用有效的许可证密钥",
  "license_database_error": "数据库出现异常",
  "license_database_error_msg": "请检查您使用的第三方数据库情况",
  "license_invalid_args": "无效参数",
  "license_invalid_args_msg": "请更新配置参数信息",
  "license_permission_denied": "抱歉，您暂无相应权限",
  "license_permission_denied_msg": "您可联系管理员为您分配相应权限",
  "license_info_1_1": "您可以通过以下方式联系灵雀云工作人员购买",
  "license_info_1_2": "产品许可证",
  "license_info_2_1": "请输入平台ID对应的",
  "license_info_2_2": "产品许可证密钥，激活平台全功能",
  "license_info_4": "许可证已过期，请更新许可证密钥",
  "license_info_5": "为保证您可正常接收许可证到期的邮件提醒，已将您的提醒邮箱设置为：",
  "license_info_6_1": "试用期结束后，",
  "license_info_6_2": " 平台功能将无法正常使用。您可通过更新许可证继续使用平台全功能",
  "license_info_6_3": "有效期结束后，",
  "license_info_7_1": "",
  "license_info_7_2": " 平台功能无法使用，请联系企业超级管理员更新许可证"
}
