<?xml version="1.0" encoding="UTF-8" standalone="no"?>
<svg width="12px" height="12px" viewBox="0 0 12 12" version="1.1" xmlns="http://www.w3.org/2000/svg" xmlns:xlink="http://www.w3.org/1999/xlink">
    <!-- Generator: Sketch 39 (31667) - http://www.bohemiancoding.com/sketch -->
    <title>Group 40</title>
    <desc>Created with Sketch.</desc>
    <defs></defs>
    <g id="主机标签" stroke="none" stroke-width="1" fill="none" fill-rule="evenodd">
        <g id="集群详情页" transform="translate(-1057.000000, -704.000000)" fill="#FFFFFF">
            <g id="registry_warehouse">
                <g id="Group-4" transform="translate(180.000000, 66.000000)">
                    <g id="Group-17" transform="translate(0.000000, 49.000000)">
                        <g id="Group-24" transform="translate(0.000000, 173.000000)">
                            <g id="Group-25" transform="translate(0.000000, 217.000000)">
                                <g id="Group-3" transform="translate(0.000000, 16.000000)">
                                    <g id="Group-12" transform="translate(16.000000, 94.000000)">
                                        <g id="Group">
                                            <g id="Group-22">
                                                <g id="Group-35" transform="translate(0.000000, 46.000000)">
                                                    <g id="Group-15" transform="translate(833.000000, 38.000000)">
                                                        <g id="Group-39" transform="translate(28.500000, 5.000000)">
                                                            <g id="Group-40">
                                                                <path d="M11.1432174,0.457744053 L11.1432174,4.18070762 L7.69224651,4.18070762 L8.9319115,2.77794252 C8.52138458,2.3674156 8.04921305,2.04869982 7.51670849,1.81917199 C6.98289234,1.59095575 6.42415602,1.47684763 5.83787637,1.47684763 C5.04043111,1.47684763 4.30463047,1.67358577 3.63047445,2.06575046 C2.95631843,2.45791515 2.42250228,2.9917313 2.03033759,3.66588732 C1.6381729,4.34004334 1.44143476,5.07584398 1.44143476,5.87328923 C1.44143476,6.67073449 1.6381729,7.40653513 2.03033759,8.08069115 C2.42250228,8.75484717 2.95631843,9.28866332 3.63047445,9.68082801 C4.30463047,10.0729927 5.04043111,10.2697308 5.83787637,10.2697308 C6.78746578,10.2697308 7.64262089,9.9995438 8.40465328,9.4604813 C9.16668568,8.9214188 9.69394389,8.21840785 9.98773951,7.35013686 L11.5,7.35013686 C11.2888344,8.19479927 10.908474,8.94765055 10.3576072,9.61000228 C9.80674042,10.272354 9.14963504,10.7904311 8.38760265,11.1655452 C7.59015739,11.5524635 6.74024863,11.7452669 5.83787637,11.7452669 C4.78335995,11.7452669 3.79835766,11.4750798 2.88418111,10.9360173 C2.00541743,10.4205634 1.30765283,9.71624088 0.792198905,8.8256729 C0.263629106,7.92461223 0,6.93960995 0,5.87328923 C0,4.80696852 0.263629106,3.82196624 0.790887318,2.91959398 C1.30634124,2.029026 2.00410584,1.32470347 2.88286953,0.809249544 C3.79704608,0.270187044 4.78204836,0 5.83656478,0 C6.63401004,0 7.38948449,0.152144161 8.10429973,0.457744069 C8.82042655,0.762032391 9.44736542,1.18436359 9.98773951,1.72342609 L11.1432174,0.457744053 Z" id="Path"></path>
                                                                <rect id="Rectangle-7" x="5.32995605" y="3.17999268" width="1.52999997" height="5.5" rx="0.400000006"></rect>
                                                                <rect id="Rectangle-7" transform="translate(6.094956, 5.929993) rotate(-90.000000) translate(-6.094956, -5.929993) " x="5.32995605" y="3.17999268" width="1.52999997" height="5.5" rx="0.400000006"></rect>
                                                            </g>
                                                        </g>
                                                    </g>
                                                </g>
                                            </g>
                                        </g>
                                    </g>
                                </g>
                            </g>
                        </g>
                    </g>
                </g>
            </g>
        </g>
    </g>
</svg>