<?xml version="1.0" encoding="UTF-8" standalone="no"?>
<svg width="17px" height="18px" viewBox="0 0 17 18" version="1.1" xmlns="http://www.w3.org/2000/svg" xmlns:xlink="http://www.w3.org/1999/xlink">
    <!-- Generator: Sketch 47.1 (45422) - http://www.bohemiancoding.com/sketch -->
    <title>Group 50</title>
    <desc>Created with Sketch.</desc>
    <defs></defs>
    <g id="dashboard" stroke="none" stroke-width="1" fill="none" fill-rule="evenodd">
        <g id="集群" transform="translate(-460.000000, -382.000000)">
            <g id="Group-49" transform="translate(184.000000, 161.000000)">
                <g id="Group-36" transform="translate(0.000000, 29.000000)">
                    <g id="Group-28" transform="translate(276.000000, 7.000000)">
                        <g id="Group-27" transform="translate(0.000000, 185.000000)">
                            <g id="Group-24">
                                <g id="Group-50">
                                    <path d="M16.892206,6.32014724 C16.6064483,5.33581231 15.809543,4.63921215 14.8745039,4.43583389 C15.0334632,3.49143648 14.6837791,2.49168015 13.8768565,1.86032445 C13.0100934,1.18204544 11.8590226,1.11917349 10.9470497,1.6064641 C10.5286942,0.660353238 9.58324237,0 8.48304905,0 C7.45877659,0 6.56828827,0.571910725 6.11236774,1.41389404 C5.25087698,0.997515623 4.19417998,1.05471987 3.36340025,1.65431007 C2.5324887,2.25350485 2.14392158,3.23876242 2.26584309,4.18869572 C1.32342279,4.355168 0.499760641,5.01973906 0.175778965,5.99221136 C-0.148334524,6.96481545 0.111588933,7.99146044 0.765351826,8.69109218 C0.0981446159,9.3774114 -0.181945317,10.3989159 0.122924351,11.3774513 C0.427925833,12.3562504 1.23840728,13.0370337 2.17740058,13.2216953 C2.03676248,14.1692561 2.40595397,15.1617631 3.22500288,15.7773019 C4.0440518,16.3929726 5.09903529,16.4708705 5.96869809,16.0712316 C6.40801093,16.922046 7.28716385,17.5113552 8.31117269,17.5313899 C9.33504973,17.5514246 10.2366098,16.9973078 10.7090062,16.1641556 C11.562325,16.5974053 12.619681,16.5608947 13.4620598,15.978044 C14.3044385,15.3951933 14.7122495,14.4177124 14.6089128,13.4654065 C15.5543646,13.3175191 16.3909438,12.6691603 16.7339058,11.7030147 C17.0769995,10.737001 16.8371107,9.70547912 16.1971875,8.99345751 C16.8779708,8.3204508 17.1780954,7.30461399 16.892206,6.32014724" id="Shape" fill="#FFFFFF" opacity="0.22"></path>
                                    <g id="Group-26" opacity="0.94" transform="translate(4.000000, 4.000000)" fill="#37ABDA">
                                        <path d="M0,2.07991697 L0,4.4666418 L1.94946809,3.2718604 L0,2.07991697 L0,2.07991697 Z M6.93882979,0.652422807 L6.93882979,3.0419856 L8.87234043,1.85004216 L6.93882979,0.652422807 L6.93882979,0.652422807 Z M0,4.92922937 L0,7.3159542 L1.94946809,6.12117281 L0,4.92922937 L0,4.92922937 Z M6.93882979,3.50457317 L6.93882979,5.891298 L8.87234043,4.69935457 L6.93882979,3.50457317 L6.93882979,3.50457317 Z M4.63297872,2.07991697 L4.63297872,4.4666418 L6.56382979,3.2718604 L4.63297872,2.07991697 L4.63297872,2.07991697 Z M2.32446809,0.652422807 L2.32446809,3.0419856 L4.25531915,1.85004216 L2.32446809,0.652422807 L2.32446809,0.652422807 Z M2.07446809,5.88846004 L2.07446809,3.49889725 L0.127659574,4.69651661 L2.07446809,5.88846004 L2.07446809,5.88846004 Z M6.93882979,8.73777244 L8.87234043,7.54299105 L6.93882979,6.34820965 L6.93882979,8.73777244 L6.93882979,8.73777244 Z M2.07446809,8.73777244 L2.07446809,6.34820965 L0.127659574,7.54299105 L2.07446809,8.73777244 L2.07446809,8.73777244 Z M6.68882979,3.0419856 L6.68882979,0.652422807 L4.7606383,1.85004216 L6.68882979,3.0419856 L6.68882979,3.0419856 Z M9,7.31311624 L9,4.92639141 L7.07180851,6.11833485 L9,7.31311624 L9,7.31311624 Z M7.06914894,3.2718604 L8.99734043,4.4666418 L8.99734043,2.07991697 L7.06914894,3.2718604 L7.06914894,3.2718604 Z M2.07446809,3.0419856 L2.07446809,0.652422807 L0.127659574,1.85004216 L2.07446809,3.0419856 L2.07446809,3.0419856 Z M4.38031915,4.4666418 L4.38031915,2.07991697 L2.44680851,3.2718604 L4.38031915,4.4666418 L4.38031915,4.4666418 Z" id="Shape"></path>
                                    </g>
                                </g>
                            </g>
                        </g>
                    </g>
                </g>
            </g>
        </g>
    </g>
</svg>