<?xml version="1.0" encoding="UTF-8" standalone="no"?>
<svg width="59px" height="60px" viewBox="0 0 59 60" version="1.1" xmlns="http://www.w3.org/2000/svg" xmlns:xlink="http://www.w3.org/1999/xlink">
    <!-- Generator: Sketch 39 (31667) - http://www.bohemiancoding.com/sketch -->
    <title>icon-微软</title>
    <desc>Created with Sketch.</desc>
    <defs></defs>
    <g id="LDAP" stroke="none" stroke-width="1" fill="none" fill-rule="evenodd">
        <g id="OpenLDAP_Default_A" transform="translate(-645.000000, -348.000000)" fill="#272636">
            <g id="registry_warehouse" transform="translate(-18.000000, 0.000000)">
                <g id="Group-11" transform="translate(197.000000, 72.000000)">
                    <g id="Group-31" transform="translate(0.000000, 150.000000)">
                        <g id="Group-30">
                            <g id="类型" transform="translate(154.000000, 99.000000)">
                                <g id="Group-17" transform="translate(233.000000, 0.000000)">
                                    <g id="Group-25">
                                        <g id="Group-28">
                                            <g id="icon-微软" transform="translate(79.968085, 27.071322)">
                                                <path d="M26.6474861,54.4089356 L26.5774094,30.7375229 L57.765973,30.878825 L57.765973,59.1431472 L26.6474861,54.4089356 L26.6474861,54.4089356 Z M26.5773507,4.73427072 L57.7659143,0 L57.7659143,26.1445543 L26.5773507,26.1445543 L26.5773507,4.73427072 L26.5773507,4.73427072 L26.5773507,4.73427072 Z M0.0145580334,30.6668127 L22.302081,30.7375229 L22.302081,53.9849111 L0.0145580334,50.3812345 L0.0145580334,30.6668127 L0.0145580334,30.6668127 L0.0145580334,30.6668127 Z M0.0145580334,26.1445543 L0.0145580334,8.76197183 L22.302081,5.15823615 L22.302081,26.1445543 L0.0145580334,26.1445543 L0.0145580334,26.1445543 L0.0145580334,26.1445543 Z" id="Shape"></path>
                                            </g>
                                        </g>
                                    </g>
                                </g>
                            </g>
                        </g>
                    </g>
                </g>
            </g>
        </g>
    </g>
</svg>