{
  "nav_jenkins": "Jenkins",
  "nav_jenkins_pipelines": "流水线项目",
  "nav_jenkins_histories": "运行历史",
  "jenkins_pipeline": "Jenkins流水线",
  "jenkins_pipeline_config": "Jenkins流水线",
  "jenkins_pipeline_create": "创建流水线",
  "jenkins_pipeline_start": "执行",
  "jenkins_pipeline_total": "共{{total}}个流水线项目",
  "jenkins_pipeline_triggers": "触发器",
  "jenkins_pipeline_trigger": "触发器",
  "jenkins_histories": "执行记录",
  "jenkins_pipeline_basic_info": "基本信息",
  "jenkins_pipeline_select_code_repo": "代码仓库",
  "jenkins_pipeline_script_type": "脚本来源",
  "jenkins_pipeline_create_tips": "提供两种创建Jenkins流水线方式：页面填写流水线脚本或从代码仓选择Jenkinsfile。提供了四种流水线触发方式：代码触发、镜像触发、定时触发和手动触发，多种触发方式可混搭使用。目前Alauda Jenkins Pipeline 对于 input step，只支持 message 参数。且对于参数化构建，只支持默认参数值。语法参考：<a href='https://jenkins.io/doc/book/pipeline/syntax/' target='_blank'>https://jenkins.io/doc/book/pipeline/syntax/</a>",
  "jenkins_pipeline_display_name": "显示名称",
  "jenkins_integration": "Jenkins 实例",
  "jenkin_script_content": "页面编写脚本",
  "jenkins_script_inline": "页面编写",
  "jenkins_script_from_scm": "Jenkinsfile",
  "jenkins_trigger_cron": "定时触发",
  "jenkins_trigger_time_rule": "定时规则",
  "jenkins_trigger_image_change": "镜像触发",
  "jenkins_trigger_code_change_hook": "代码触发",
  "jenkins_trigger_unknown": "未知",
  "jenkins_trigger_user": "手工触发",
  "jenkins_code_repository": "仓库类型",
  "jenkins_code_account": "账号",
  "jenkins_code_repository_address": "仓库地址",
  "jenkins_script_path": "脚本路径",
  "jenkins_code_credential": "凭据",
  "jenkins_create_credential": "添加凭据",
  "jenkins_add_trigger": "添加触发器",
  "jenkins_client_github": "GitHub",
  "jenkins_client_bitbucket": "Bitbucket",
  "jenkins_client_oschina": "OSChina",
  "jenkins_client_git": "输入Git仓库",
  "jenkins_client_svn": "输入SVN仓库",
  "jenkins_client_not_use": "不使用",
  "jenkins_client_authed_tips": "可添加“用户名/密码”类型的代码仓库凭据，但需要在Jenkins服务器上管理凭据。代码触发器必须使用相同的代码仓库",
  "jenkins_client_not_authed_tips": "请使用根账户关联该代码仓库",
  "jenkins_client_webhook_tips": "成功创建流水线后，在项目详情页的触发器栏内，显示webhook地址，将此地址设置到需要触发的代码仓库，即可实现代码触发",
  "jenkins_history_badge_hint": "点击查看详情",
  "jenkins_history_badge_sonarqube_hint": "点击前往 SonarQube 查看代码扫描报告",
  "jenkins_history_id": "执行 ID",
  "jenkins_history_status": "执行状态",
  "jenkins_history_content": "执行内容",
  "jenkins_history_time": "执行时间",
  "jenkins_history_create_info": "触发信息",
  "jenkins_history_consumed": "耗时",
  "jenkins_history_restart": "再次执行",
  "jenkins_history_cancel": "取消执行",
  "jenkins_history_running": "执行中",
  "jenkins_history_success": "成功",
  "jenkins_history_failure": "失败",
  "jenkins_history_canceled": "已取消",
  "jenkins_history_wait": "等待核准",
  "jenkins_history_queued": "排队中",
  "jenkins_history_unknown": "未知状态",
  "jenkins_script_path_description": "请填写相对路径，并需要指定到文件",
  "jenkins_credential_tips": "请先选择Jenkins实例，再选择凭据",
  "jenkins_time_rule_tips": "定时器语法类似linux下的crontab，详情请参阅Jenkins帮助文档",
  "jenkins_service_conn_refused": "{{ integration_name }}服务连接中断",
  "jenkins_service_unavailable_title": "Jenkins 服务不可用",
  "jenkins_service_unavailable_content": "{{ integration_name }}服务不可用, 请前往Jenkins服务确认状态",
  "jenkins_integration_in_active_title": "Jenkins 服务已停用",
  "jenkins_integration_in_active_content": "{{ integration_name }}服务已停用, 请前往<a href='/console/integration_center/detail/{{integration_id}}'>集成中心</a>开启实例后再执行该流水线项目",
  "jenkins_pipeline_history_not_support_replay": "Jenkins流水线不支持重新执行",
  "jenkins_pipeline_name_already_exist": "Jenkins流水线名称已存在",
  "jenkins_unauthorized": "Jenkins权限校验失败，请检查集成实例{{ integration_name }}的用户名或者token配置是否正确",
  "jenkins_integration_host_error": "Jenkins集成实例{{ integration_name }}域名解析错误",
  "jenkins_integration_not_exist": "Jenkins集成实例{{ integration_id }}不存在",
  "jenkins_history_confirm_cancel": "确定要取消执行“{{ pipeline_name }}#{{ history_id }}”吗？",
  "jenkins_history_confirm_delete": "确定要删除执行记录“{{ pipeline_name }}#{{ history_id }}”吗？",
  "jenkins_pipeline_confirm_delete": "确定要删除流水线“{{ pipeline_name }}”吗？",
  "jenkins_pipeline_clone": "复制",
  "jenkins_trigger_code_change_hook_hint": "当指定代码仓库发生变化时，将触发此流水线，手动执行过此流水线后，该触发器生效。若仓库类型选择“输入 Git 仓库”或“输入 SVN 仓库”时，流水线创建成功后，匹配的代码分支会自动执行一次；每隔 1 分钟系统会自动检测您填写的代码仓库，若有代码提交将触发此流水线。",
  "jenkins_trigger_code_change_hook_invalid": "仓库类型为不使用时，触发器不可使用代码触发方式，请删除",
  "jenkins_pipeline_script": "流水线脚本",
  "jenkins_history_link": "Jenkins执行记录实例链接",
  "jenkins_logs_to_full_logs": "查看完整日志",
  "jenkins_logs_to_stages": "查看分阶段日志",
  "jenkins_wait_approvals": "共有{{ waitApprovals }}个需要核准",
  "jenkins_steps_empty": "尚无步骤日志",
  "jenkins_step_proceed": "通过",
  "jenkins_step_abort": "中止",
  "jenkins_test_result": "测试结果",
  "jenkins_test_result_regression": "新的故障",
  "jenkins_test_result_failed": "已有故障",
  "jenkins_test_result_skipped": "跳过",
  "jenkins_test_result_fixed": "修复",
  "jenkins_test_result_passed": "通过",
  "jenkins_credentials_not_use": "不使用",
  "jenkins_is_code_client_not_bind_prefix": "当前代码仓库来源未绑定，无法获取账号信息，请使用根账号前往",
  "jenkins_is_code_client_not_bind_suffix": "绑定。",
  "jenkins_select_trigger_type": "选择触发方式",
  "jenkins_trigger_type": "触发方式",
  "jenkins_pipeline_name": "项目名称",
  "jenkins_pipeline_create_by_template": "通过模板创建流水线",
  "jenkins_pipeline_create_by_jenkinsfile": "通过 Jenkinsfile 创建流水线",
  "jenkins_pipeline_template_create": "模板创建",
  "jenkins_pipeline_jenkinsfile_create": "脚本创建",
  "jenkins_pipeline_template": "流水线模板",
  "jenkins_pipeline_template_repository": "流水线模板仓库",
  "jenkins_pipeline_use_template": "使用模板",
  "jenkins_pipeline_template_brief_desc": "简介",
  "jenkins_pipeline_template_params": "模板参数",
  "jenkins_pipeline_params": "参数",
  "nav_jenkins_pipelines_templates": "流水线模板",
  "jenkins_pipeline_use_vars": "如何使用环境变量",
  "jenkins_template": "模板",
  "jenkins_template_create_pipeline_cancel_title": "取消创建",
  "jenkins_template_create_pipeline_cancel_content": "确认取消创建流水线吗？",
  "jenkins_template_service_container_no_cluster": "没有可用的集群",
  "jenkins_template_service_container_no_namespace": "没有可用的命名空间",
  "jenkins_template_service_container_no_service": "没有可用的服务",
  "jenkins_template_service_container_no_container": "没有可用的部署容器",
  "jenkins_template_service_container_select_cluster_tips": "请选择集群",
  "jenkins_template_service_container_select_namespace_tips": "请选择命名空间",
  "jenkins_template_service_container_select_service_tips": "请选择服务",
  "jenkins_template_service_container_select_container_tips": "请选择容器",
  "jenkins_template_var_name": "变量名称",
  "nav_pipeline_template": "流水线模板",
  "jenkins_template_type_all": "全部",
  "jenkins_template_type_system": "系统",
  "jenkins_template_type_custom": "自定义",
  "jenkins_template_generator_pipeline_list_view": "查看所建流水线",
  "jenkins_template_detail_view": "模板",
  "jenkins_template_detail": "模板详情",
  "jenkins_template_sync": "同步模板仓库",
  "jenkins_template_sync_doing": "模板仓库同步中",
  "jenkins_template_sync_repo_settings": "模板仓库设置",
  "jenkins_template_repo_sync_detail": "同步详情",
  "jenkins_custom_template_introduction": "自定义模板说明",
  "nav_jenkins_templates": "模板",
  "jenkins_template_create_pipeline": "模板创建流水线",
  "jenkins_template_sync_info": "同步信息",
  "jenkins_template_sync_start_time": "同步开始时间",
  "jenkins_template_sync_result": "同步结果",
  "jenkins_template_name": "模板名称",
  "jenkins_template_version_changes": "版本变更",
  "jenkins_template_type": "模板类型",
  "jenkins_template_path": "模板路径",
  "jenkins_template_show_detail": "展示详情",
  "jenkins_template_hide_detail": "隐藏详情",
  "jenkins_template_source_unset": "模板仓库未设置，无法同步",
  "jenkins_template_source_unset_tips": "请进行“模板仓库设置”后，再进行同步",
  "jenkins_template_save_and_sync": "保存并同步",
  "jenkins_template_is_syncing": "模板仓库同步中...",
  "jenkins_template_no_update": "无更新",
  "jenkins_template_custom_template_none": "您可以通过“模板仓库设置”进行“同步”后添加自定义模板",
  "jenkins_template_sync_is_already_running": "“同步模板仓库”操作已经触发",
  "jenkins_template_sync_finished": "模板仓库同步完成!",
  "jenkins_template_sync_failed": "模板仓库同步失败!",
  "jenkins_template_sync_failed_reason_is_clone": "Clone 代码出错!",
  "jenkins_template_sync_failed_reason_is_import": "导入模板出错!",
  "jenkins_template_sync_failed_reason_at_start": "开始任务出错!",
  "jenkins_template_create_pipeline_unstable_title": "确定使用当前研发中的模板创建流水线？",
  "jenkins_template_create_pipeline_unstable_tips": "该模板尚在研发中，可能很不稳定。",
  "jenkins_template_sync_finished_description": "{{fail}}项失败，{{ban}}项无更新，{{success}}项成功",
  "jenkins_pipeline_template_source": "JenkinsPipeline模板同步",
  "jenkins_pipeline_custom_template_help": "自定义模板说明",
  "created_method": "创建方式",
  "jenkins_git_repo_address_example": "例：https://github.com/example/example.git 或 git@github.com:example/example.git",
  "jenkins_svn_repo_address_example": "例：https://svn.riouxsvn.com/example-project/trunk/",
  "jenkinsfile_content_example": "查看脚本样例",
  "jenkins_no_resource_waring": "当前没有可用的资源空间，或 Jenkins 实例，无法创建 Jenkins 流水线",
  "jenkins_force_delete_pipeline_confirm_title": "是否要强制删除流水线？",
  "jenkins_force_delete_pipeline_confirm_content": "当前流水线所在 Jenkins 实例异常，导致流水线不可用。若强制删除，数据将无法与 Jenkins 实例同步，若恢复并欲继续使用该实例，需在实例中手动删除对应流水线",
  "jenkinsfile_preview": "预览 Jenkinsfile",
  "jenkins_sync_report": "查看同步详情",
  "jenkins_trigger_image_tag_tip": "可以使用通配符指定，如：master, *",
  "jenkins_code_repo_branch_tip": "可以使用通配符指定，如：master, *",
  "jenkins_pipeline_code_branch_hint": "1. 构建支持通配符【*】与【**】\n2. 若要使用通配符，需在分支前加上【origin/】，例如【origin/dev*】\n3. 变更通配符分支后，需对修改后通配符匹配的分支进行一次有效构建\n4.通配符目前不支持模板创建",
  "trigger_all": "所有版本触发",
  "trigger_target": "指定版本触发",
  "trigger_version": "触发版本",
  "trigger_version_filter": "镜像版本",
  "jenkins_template_argument_value_invalid": "模板参数值不可用",
  "jenkinsfile_preview_tooltip": "模板参数填写完成后，方可预览 Jenkinsfile",
  "jenkins_pipeline_upgrade": "升级",
  "jenkins_pipeline_upgrade_tips": "1. 保存流水线将从 {{ fromVersion }} 升级到 {{ toVersion }} <br>2. 流水线升级后将不可退回到以前版本。"
}
