<?xml version="1.0" encoding="UTF-8" standalone="no"?>
<svg width="25px" height="26px" viewBox="0 0 25 26" version="1.1" xmlns="http://www.w3.org/2000/svg" xmlns:xlink="http://www.w3.org/1999/xlink">
    <!-- Generator: Sketch 39 (31667) - http://www.bohemiancoding.com/sketch -->
    <g id="镜像仓库同步" stroke="none" stroke-width="1" fill="none" fill-rule="evenodd" opacity="0.939999998">
        <g id="同步中心详情" transform="translate(-180.000000, -70.000000)">
            <g id="registry_warehouse">
                <g id="Group-24" transform="translate(180.000000, 70.000000)">
                    <g id="Group-46">
                        <g id="同步成功">
                            <path d="M8.91647856,17.8749306 C8.91647856,22.3402018 12.5173815,25.9610845 16.9580135,25.9610845 C21.3986456,25.9610845 24.9995485,22.3402018 24.9995485,17.8749306 C24.9995485,13.4078436 21.3986456,9.7887768 16.9580135,9.7887768 C12.5173815,9.7887768 8.91647856,13.4096595 8.91647856,17.8749306 Z" id="Shape" fill="#000000" opacity="0.789999962"></path>
                            <path d="M13.5663107,17.7744502 C14.4075854,12.4973798 19.3751123,14.8740756 19.3751123,15.1963395 C19.0546267,15.5991693 18.5738983,16.203414 18.5738983,16.203414 L21.5784509,16.203414 L21.5784509,13.2224734 C21.5784509,13.2224734 20.8172976,13.9072841 20.3766299,14.2295479 C20.1763264,13.1016245 13.4060679,10.6040797 11.9638826,17.8147332 C12.5247324,17.7341672 12.8852787,17.7744502 13.5663107,17.7744502 L13.5663107,17.7744502 Z M20.3766299,17.9758651 C19.5353551,23.2932184 14.5678282,20.9165226 14.5678282,20.5539758 C14.8883138,20.110863 15.3690422,19.5469013 15.3690422,19.5469013 L12.3644896,19.5469013 L12.3644896,22.5278418 C12.3644896,22.5278418 13.125643,21.8430312 13.5663107,21.5207673 C13.7666142,22.6486908 20.5368727,25.1462355 21.9790579,17.9355821 C21.4182081,18.0161481 21.0576618,17.9758651 20.3766299,17.9758651 L20.3766299,17.9758651 Z" id="Shape" fill="#FFFFFF"></path>
                            <path d="M9.56207675,23.6303909 L1.9214447,23.6303909 L1.9214447,1.83972257 L19.9801354,1.83972257 L19.9801354,8.95437579 C20.5706546,9.19044136 21.1358916,9.49732661 21.6776524,9.86050441 L21.6776524,0.0238335435 L0.0072234763,0.0238335435 L0.0072234763,25.4462799 L11.5665914,25.4462799 C11.0428894,25.1085246 10.5462754,24.7144767 10.0839729,24.2605044 C9.88713318,24.0643884 9.73905192,23.8392182 9.56207675,23.6303909 L9.56207675,23.6303909 Z" id="Shape" fill="#000000"></path>
                            <polygon id="Shape" fill="#000000" points="3.61896163 6.26867591 18.0659142 6.26867591 18.0659142 8.08456494 3.61896163 8.08456494 3.61896163 6.26867591"></polygon>
                            <path d="M3.61896163,12.0886003 L3.61896163,13.9044893 L8.17155756,13.9044893 C8.47674944,13.2634805 8.86139955,12.6606053 9.32009029,12.0886003 L3.61896163,12.0886003 L3.61896163,12.0886003 Z" id="Shape" fill="#000000"></path>
                            <path d="M7.23792325,17.9103405 L3.61896163,17.9103405 L3.61896163,19.7262295 L7.40948081,19.7262295 C7.29209932,19.1269861 7.23792325,18.5186633 7.23792325,17.9103405 L7.23792325,17.9103405 Z" id="Shape" fill="#000000"></path>
                        </g>
                    </g>
                </g>
            </g>
        </g>
    </g>
</svg>
