<?xml version="1.0" encoding="UTF-8"?>
<svg width="47px" height="28px" viewBox="0 0 47 28" version="1.1" xmlns="http://www.w3.org/2000/svg" xmlns:xlink="http://www.w3.org/1999/xlink">
    <!-- Generator: Sketch 48.1 (47250) - http://www.bohemiancoding.com/sketch -->
    <title>燃气管道</title>
    <desc>Created with Sketch.</desc>
    <defs></defs>
    <g id="触发流水线" stroke="none" stroke-width="1" fill="none" fill-rule="evenodd" transform="translate(-765.000000, -737.000000)">
        <g id="Group-34" transform="translate(179.000000, 119.000000)" fill="#272636" fill-rule="nonzero">
            <g id="Group-5" transform="translate(19.000000, 20.000000)">
                <g id="Group-16" transform="translate(0.000000, 157.000000)">
                    <g id="Group-19" transform="translate(0.000000, 20.000000)">
                        <g id="Group-3" transform="translate(215.000000, 0.000000)">
                            <g id="Group-30" transform="translate(0.000000, -39.000000)">
                                <g id="type">
                                    <g id="Group-14" transform="translate(100.000000, 0.000000)">
                                        <g id="Group-20" transform="translate(0.000000, 182.000000)">
                                            <g id="Group-25">
                                                <g id="Group-29" transform="translate(188.000000, 251.000000)">
                                                    <g id="Group-27">
                                                        <g id="燃气管道" transform="translate(64.000000, 27.000000)">
                                                            <path d="M2,15.5 L16,15.5 L16,24.5 L2,24.5 C0.8954305,24.5 1.3527075e-16,23.6045695 0,22.5 L0,17.5 C-1.3527075e-16,16.3954305 0.8954305,15.5 2,15.5 Z" id="Shape"></path>
                                                            <path d="M31,15.5 L45,15.5 C46.1045695,15.5 47,16.3954305 47,17.5 L47,22.5 C47,23.6045695 46.1045695,24.5 45,24.5 L31,24.5 L31,15.5 Z" id="Shape"></path>
                                                            <path d="M30.9999999,26.0990439 C30.9999999,27.1478954 30.2087869,28 29.2309775,28 L17.7690224,28 C16.7920117,28 16,27.1480026 16,26.0990439 L16.0000001,13.9008489 C16.0000001,12.8511392 16.7921116,12 17.7690225,12 L29.2309776,12 C30.208787,12 31,12.8511391 31,13.9008489 L30.9999999,26.0990439 Z" id="Shape"></path>
                                                            <g id="Group-35" transform="translate(15.000000, 0.000000)">
                                                                <path d="M11,11.1999711 C11,11.6421541 10.6746893,12 10.2727094,12 L6.72729064,12 C6.32563907,12 6,11.6421542 6,11.1999711 L6,7.79993863 C6,7.35847799 6.32563907,7 6.72729064,7 L10.2727094,7 C10.6746893,7 11,7.35856826 11,7.79993863 L11,11.1999711 Z" id="Shape"></path>
                                                                <polygon id="Shape" points="0.5 0 16.5 0 16.5 2.57906814 11.8526351 7 4.9187892 7 0.5 2.50481884"></polygon>
                                                            </g>
                                                        </g>
                                                    </g>
                                                </g>
                                            </g>
                                        </g>
                                    </g>
                                </g>
                            </g>
                        </g>
                    </g>
                </g>
            </g>
        </g>
    </g>
</svg>