{
  "k8s_configmap": "ConfigMap",
  "delete_configmap": "Delete Configmap",
  "update_configmap": "Update Configmap",
  "configmap_service_add_key_configmap_confirm": "Confirm to add configmap key <b>{{ configmap_key }}</b>?",
  "configmap_service_update_key_configmap_confirm": "Confirm to update configmap key <b>{{ configmap_key }}</b>?",
  "configmap_service_delete_key_configmap_confirm": "Confirm to delete configmap key <b>{{configmap_key}}</b>?",
  "configmap_service_delete_configmap_confirm": "Confirm to delete configmap {{configmap_name}}?",
  "configmap_service_delete_selected_cluster_configmap_confirm": "Confirm to delete select cluster's configmap {{configmap_name}}?",
  "configmap_service_update_configmap_confirm": "Confirm to update configmap <b>{{configmap_name}}</b>?",
  "configmap_service_create_configmap_confirm": "Confirm to create new <b>{{ configmap_name }}</b> configmap?",
  "configmap_config_info": "Configuration Information",
  "configmap_add_config": "Add Configuration Item",
  "configmap_no_config": "No Configuration Information",
  "configmap_duplicate_keys": "There are duplicate keys: ",
  "create_configmap_by_ui": "Create ConfigMap by UI",
  "create_configmap_by_yaml": "Create ConfigMap by Compose File",
  "standard_mode": "Standard Mode",
  "delete_configmap_success": "Delete configmap success"
}
