<?xml version="1.0" encoding="UTF-8" standalone="no"?>
<svg width="53px" height="50px" viewBox="0 0 53 50" version="1.1" xmlns="http://www.w3.org/2000/svg" xmlns:xlink="http://www.w3.org/1999/xlink">
    <!-- Generator: Sketch 47.1 (45422) - http://www.bohemiancoding.com/sketch -->
    <title>Group 20</title>
    <desc>Created with Sketch.</desc>
    <defs>
        <linearGradient x1="29.2962576%" y1="18.8595221%" x2="67.7245979%" y2="111.237108%" id="linearGradient-1">
            <stop stop-color="#64EB9E" offset="3.17881059%"></stop>
            <stop stop-color="#2DD270" offset="100%"></stop>
        </linearGradient>
    </defs>
    <g id="k8s" stroke="none" stroke-width="1" fill="none" fill-rule="evenodd">
        <g id="服务列表" transform="translate(-204.000000, -219.000000)">
            <g id="Group-34" transform="translate(134.000000, 108.000000)">
                <g id="Group-3" transform="translate(0.000000, 51.000000)">
                    <g id="Group-9">
                        <g id="Group-5">
                            <g id="Group-20" transform="translate(50.000000, 43.000000)">
                                <g id="Group-5" transform="translate(0.000000, 11.000000)">
                                    <g id="Group-39" transform="translate(20.000000, 0.000000)">
                                        <g id="Group-36" transform="translate(0.000000, 6.000000)">
                                            <g id="Group-20">
                                                <rect id="Rectangle-61" fill="url(#linearGradient-1)" x="0" y="0" width="53" height="49.3627451" rx="2"></rect>
                                                <path d="M11.1333333,14 L42.8666667,14 C44,14 44,14 44,14.6637868 L44,15.6480224 C44,16.2889201 44,16.2889201 42.8666667,16.2889201 L11.1333333,16.2889201 C10,16.2889201 10,16.2889201 10,15.6480224 L10,14.6637868 C10,14 10,14 11.1333333,14 L11.1333333,14 Z M15.6666667,22.0112202 C14.5333333,22.0112202 14.5333333,22.0112202 14.5333333,23.1556802 L14.5333333,32.3113604 C14.5333333,33.4558205 14.5333333,33.4558205 15.6666667,33.4558205 C16.8,33.4558205 16.8,33.4558205 16.8,32.3113604 L16.8,23.1556802 C16.8,22.0112202 16.8,22.0112202 15.6666667,22.0112202 L15.6666667,22.0112202 Z M23.056,22.0112202 C21.9226667,22.0112202 21.9226667,22.0112202 21.9226667,23.1556802 L21.9226667,32.3113604 C21.9226667,33.4558205 21.9226667,33.4558205 23.056,33.4558205 C24.1893333,33.4558205 24.1893333,33.4558205 24.1893333,32.3113604 L24.1893333,23.1556802 C24.1893333,22.0112202 24.1893333,22.0112202 23.056,22.0112202 L23.056,22.0112202 Z M30.536,22.0112202 C29.4026667,22.0112202 29.4026667,22.0112202 29.4026667,23.1556802 L29.4026667,32.3113604 C29.4026667,33.4558205 29.4026667,33.4558205 30.536,33.4558205 C31.6693333,33.4558205 31.6693333,33.4558205 31.6693333,32.3113604 L31.6693333,23.1556802 C31.6693333,22.0112202 31.6693333,22.0112202 30.536,22.0112202 L30.536,22.0112202 Z M38.3333333,22.0112202 C37.2,22.0112202 37.2,22.0112202 37.2,23.1556802 L37.2,32.3113604 C37.2,33.4558205 37.2,33.4558205 38.3333333,33.4558205 C39.4666667,33.4558205 39.4666667,33.4558205 39.4666667,32.3113604 L39.4666667,23.1556802 C39.4666667,22.0112202 39.4666667,22.0112202 38.3333333,22.0112202 L38.3333333,22.0112202 Z M12.2666667,18.5778401 L41.7333333,18.5778401 C42.8666667,18.5778401 42.8666667,18.5778401 42.8666667,19.7223001 L42.8666667,35.7447405 C42.8666667,36.8892006 42.8666667,36.8892006 41.7333333,36.8892006 L12.2666667,36.8892006 C11.1333333,36.8892006 11.1333333,36.8892006 11.1333333,35.7447405 L11.1333333,19.7223001 C11.1333333,18.5778401 11.1333333,18.5778401 12.2666667,18.5778401 L12.2666667,18.5778401 Z" id="Shape" fill="#FFFFFF" opacity="0.867420709" transform="translate(27.000000, 25.444600) scale(1, -1) translate(-27.000000, -25.444600) "></path>
                                            </g>
                                        </g>
                                    </g>
                                </g>
                            </g>
                        </g>
                    </g>
                </g>
            </g>
        </g>
    </g>
</svg>