{
  "job_config_name": "Job Config Name",
  "job_create_config": "Create Job",
  "job_start": "Start Job",
  "job_restart": "Restart Job",
  "job_config_timeout": "Timeout",
  "job_status_BLOCKED": "Blocked",
  "job_status_WAITING": "Waiting",
  "job_status_RUNNING": "Running",
  "job_status_FAILED": "Failed",
  "job_status_STOPPED": "Stopped",
  "job_status_SUCCEEDED": "Succeeded",
  "job_config_enable_schedule_rule": "Enable schedule rule for this job",
  "job_no_config_hint": "You haven't created any job configs yet.",
  "job_no_history_hint": "You haven't started any jobs yet.",
  "job_create_config_hint": "Are you sure to create job config {{ name }}?",
  "job_update_config_hint": "Are you sure to update job config {{ name }}?",
  "job_delete_config_hint": "Are you sure to delete job config {{ name }}?",
  "job_delete_history_hint": "Are you sure to delete job history {{ uuid }}?",
  "job_start_info_success": "Job {{ name }} has been started",
  "job_config_not_exist": "Job config does not exist or has been deleted",
  "job_history_not_exist": "Job history does not exist or has been deleted",
  "job_config_create_info_success": "Job config {{ name }} has been created",
  "job_config_update_info_success": "Job config {{ name }} has been updated",
  "job_config_delete_info_success": "Job config {{ name }} has been deleted",
  "job_history_delete_info_success": "Job history {{ uuid }} has been deleted",
  "job_config_page_header_info": "Run scripts or programs within a Docker container to perform the specified jobs, such as crawler programs, automated tests, data analysis, etc. By setting a schedule rule to a job, the specified task will be run at a specified time or periodically."
}
