{
  "log": "日志",
  "query_list": "查询条件",
  "query_condition_list": "查询条件",
  "logs_query_condition": "日志查询条件",
  "logs_query_condition_content": "查询条件内容",
  "logs_dashboard_tags_input_placeholder": "按回车来输入标签，只有标签能作为搜索词。",
  "logs_dashboard_search_hint": "1. [searchType]:[typeName]用于指定搜索类型，例如instance:instanceABC; <br> 2. [directSearchKeyword]用于指定搜索内容，例如 some log content。",
  "logs_search_hint": "每次查询最多显示10000条数据",
  "log_query_condition_empty_note": "暂无日志查询条件",
  "log_data_source": "数据源",
  "log_time_range": "时间范围",
  "log_query_last_used_time": "上一次使用时间",
  "log_query_timerange_required": "请选择查询的时间范围",
  "log_aggregation_chart_preview": "日志数据预览",
  "query_condition_delete_title": "删除查询条件",
  "query_condition_delete_condent": "确定删除查询条件 {{ name }} ?",
  "query_condition_time_range_out_of_date": "您查询条件的时间范围已过期",
  "query_condition_update_error": "在更新查询条件时发生了错误",
  "saved_search_already_exists": "名称已存在"
}
